contador_de_autos/contador_de_autos.vcd
$date
	Fri Aug 22 16:12:25 2025
$end
$version
	Icarus Verilog
$end
$timescale
	1ps
$end
$scope module tb_contador_de_autos $end
$var wire 1 ! S1_debounced $end
$var wire 1 " S2_debounced $end
$var wire 4 # tb_decenas [3:0] $end
$var wire 4 $ tb_unidades [3:0] $end
$var wire 1 % tb_vehicle_entered $end
$var wire 1 & tb_vehicle_exited $end
$var wire 7 ' seg [6:0] $end
$var wire 8 ( contador_actual [7:0] $end
$var wire 8 ) an [7:0] $end
$var reg 1 * S1 $end
$var reg 1 + S2 $end
$var reg 1 , clk $end
$var reg 8 - contador_esperado [7:0] $end
$var reg 1 . reset_btn $end
$var integer 32 / entradas_detectadas [31:0] $end
$var integer 32 0 pruebas_exitosas [31:0] $end
$var integer 32 1 pruebas_totales [31:0] $end
$var integer 32 2 salidas_detectadas [31:0] $end
$scope module dut $end
$var wire 1 * S1 $end
$var wire 1 + S2 $end
$var wire 1 , clk $end
$var wire 1 . reset_btn $end
$var wire 1 3 vehicle_exited $end
$var wire 1 4 vehicle_entered $end
$var wire 4 5 unidades [3:0] $end
$var wire 7 6 seg [6:0] $end
$var wire 4 7 decenas [3:0] $end
$var wire 1 8 clk_1hz $end
$var wire 8 9 an [7:0] $end
$var wire 1 : S2_debounced $end
$var wire 1 ; S1_debounced $end
$scope module counter_inst $end
$var wire 1 , clk $end
$var wire 1 . reset $end
$var wire 1 4 inc $end
$var wire 1 3 dec $end
$var reg 4 < decenas [3:0] $end
$var reg 4 = unidades [3:0] $end
$upscope $end
$scope module debounce_S1 $end
$var wire 1 > button_changed $end
$var wire 1 * button_in $end
$var wire 1 , clk $end
$var wire 1 . reset $end
$var reg 1 ; button_out $end
$var reg 1 ? button_prev $end
$var reg 1 @ button_sync $end
$var reg 20 A counter [19:0] $end
$var reg 2 B estado [1:0] $end
$upscope $end
$scope module debounce_S2 $end
$var wire 1 C button_changed $end
$var wire 1 + button_in $end
$var wire 1 , clk $end
$var wire 1 . reset $end
$var reg 1 : button_out $end
$var reg 1 D button_prev $end
$var reg 1 E button_sync $end
$var reg 20 F counter [19:0] $end
$var reg 2 G estado [1:0] $end
$upscope $end
$scope module display_inst $end
$var wire 1 , clk $end
$var wire 4 H decenas [3:0] $end
$var wire 1 . reset $end
$var wire 4 I unidades [3:0] $end
$var wire 2 J sel [1:0] $end
$var reg 8 K an [7:0] $end
$var reg 4 L digit [3:0] $end
$var reg 16 M refresh_count [15:0] $end
$var reg 7 N seg [6:0] $end
$upscope $end
$scope module div_inst $end
$var wire 1 , clk_in $end
$var wire 1 . reset $end
$var reg 1 8 clk_out $end
$var reg 7 O count [6:0] $end
$upscope $end
$scope module fsm_inst $end
$var wire 1 ; S1 $end
$var wire 1 P S1_rise $end
$var wire 1 : S2 $end
$var wire 1 Q S2_rise $end
$var wire 1 , clk $end
$var wire 1 . reset $end
$var reg 1 R S1_prev $end
$var reg 1 S S2_prev $end
$var reg 3 T estado_actual [2:0] $end
$var reg 3 U estado_siguiente [2:0] $end
$var reg 1 4 vehicle_entered $end
$var reg 1 3 vehicle_exited $end
$upscope $end
$upscope $end
$scope task forzar_contador $end
$var reg 8 V nuevo_valor [7:0] $end
$upscope $end
$scope task secuencia_entrada_valida $end
$upscope $end
$scope task secuencia_marcha_atras $end
$var reg 1 W sensor $end
$upscope $end
$scope task secuencia_salida_valida $end
$upscope $end
$scope task verificar_contador $end
$var reg 8 X valor_esperado [7:0] $end
$upscope $end
$upscope $end
$enddefinitions $end
#0
$dumpvars
bx X
xW
bx V
b0 U
b0 T
0S
0R
0Q
0P
b0 O
b111111 N
b0 M
b0 L
b11111110 K
b0 J
b0 I
b0 H
b0 G
b0 F
0E
0D
0C
b0 B
b0 A
0@
0?
0>
b0 =
b0 <
0;
0:
b11111110 9
08
b0 7
b111111 6
b0 5
04
03
b0 2
b0 1
b0 0
b0 /
1.
b0 -
0,
0+
0*
b11111110 )
b0 (
b111111 '
0&
0%
b0 $
b0 #
0"
0!
$end
#5000
1,
#10000
0,
#15000
1,
#20000
0,
#25000
1,
#30000
0,
#35000
1,
#40000
0,
#45000
1,
#50000
0,
#55000
1,
#60000
0,
#65000
1,
#70000
0,
#75000
1,
#80000
0,
#85000
1,
#90000
0,
#95000
1,
#100000
0,
#105000
1,
#110000
0,
#115000
1,
#120000
0,
#125000
1,
#130000
0,
#135000
1,
#140000
0,
#145000
1,
#150000
0,
#155000
1,
#160000
0,
#165000
1,
#170000
0,
#175000
1,
#180000
0,
#185000
1,
#190000
0,
#195000
1,
#200000
0,
0.
#205000
b1 M
b1 O
1,
#210000
0,
#215000
b10 O
b10 M
1,
#220000
0,
#225000
b11 M
b11 O
1,
#230000
0,
#235000
b100 O
b100 M
1,
#240000
0,
#245000
b101 M
b101 O
1,
#250000
0,
#255000
b110 O
b110 M
1,
#260000
0,
#265000
b111 M
b111 O
1,
#270000
0,
#275000
b1000 O
b1000 M
1,
#280000
0,
#285000
b1001 M
b1001 O
1,
#290000
0,
#295000
b1010 O
b1010 M
1,
#300000
0,
b1 0
b1 1
b0 X
#305000
b1011 M
b1011 O
1,
#310000
0,
#315000
b1100 O
b1100 M
1,
#320000
0,
#325000
b1101 M
b1101 O
1,
#330000
0,
#335000
b1110 O
b1110 M
1,
#340000
0,
#345000
b1111 M
b1111 O
1,
#350000
0,
#355000
b10000 O
b10000 M
1,
#360000
0,
#365000
b10001 M
b10001 O
1,
#370000
0,
#375000
b10010 O
b10010 M
1,
#380000
0,
#385000
b10011 M
b10011 O
1,
#390000
0,
#395000
b10100 O
b10100 M
1,
#400000
0,
1*
#405000
1>
b10101 M
1@
b10101 O
1,
#410000
0,
#415000
0>
b10110 O
1?
b1 B
b10110 M
1,
#420000
0,
#425000
b10111 M
b1 A
b10111 O
1,
#430000
0,
#435000
b11000 O
b10 A
b11000 M
1,
#440000
0,
#445000
b11001 M
b11 A
b11001 O
1,
#450000
0,
#455000
b11010 O
b100 A
b11010 M
1,
#460000
0,
#465000
b11011 M
b101 A
b11011 O
1,
#470000
0,
#475000
b11100 O
b110 A
b11100 M
1,
#480000
0,
#485000
b11101 M
b111 A
b11101 O
1,
#490000
0,
#495000
b11110 O
b1000 A
b11110 M
1,
#500000
0,
#505000
b11111 M
b1001 A
b11111 O
1,
#510000
0,
#515000
b1 U
1P
b100000 O
1!
1;
b10 B
b100000 M
1,
#520000
0,
#525000
0P
b100001 M
b1 T
1R
b0 B
b100001 O
1,
#530000
0,
#535000
b100010 O
b100010 M
1,
#540000
0,
#545000
b100011 M
b100011 O
1,
#550000
0,
#555000
b100100 O
b100100 M
1,
#560000
0,
#565000
b100101 M
b100101 O
1,
#570000
0,
#575000
b100110 O
b100110 M
1,
#580000
0,
#585000
b100111 M
b100111 O
1,
#590000
0,
#595000
b101000 O
b101000 M
1,
#600000
0,
1+
#605000
1C
b101001 M
1E
b101001 O
1,
#610000
0,
#615000
0C
b101010 O
1D
b1 G
b101010 M
1,
#620000
0,
#625000
b101011 M
b1 F
b101011 O
1,
#630000
0,
#635000
b101100 O
b10 F
b101100 M
1,
#640000
0,
#645000
b101101 M
b11 F
b101101 O
1,
#650000
0,
#655000
b101110 O
b100 F
b101110 M
1,
#660000
0,
#665000
b101111 M
b101 F
b101111 O
1,
#670000
0,
#675000
b110000 O
b110 F
b110000 M
1,
#680000
0,
#685000
b110001 M
b111 F
b110001 O
1,
#690000
0,
#695000
b110010 O
b1000 F
b110010 M
1,
#700000
0,
#705000
b110011 M
b1001 F
b110011 O
1,
#710000
0,
#715000
b10 U
1Q
b110100 O
1"
1:
b10 G
b110100 M
1,
#720000
0,
#725000
0Q
b110101 M
b10 T
1S
b0 G
b110101 O
1,
#730000
0,
#735000
b110110 O
b110110 M
1,
#740000
0,
#745000
b110111 M
b110111 O
1,
#750000
0,
#755000
b111000 O
b111000 M
1,
#760000
0,
#765000
b111001 M
b111001 O
1,
#770000
0,
#775000
b111010 O
b111010 M
1,
#780000
0,
#785000
b111011 M
b111011 O
1,
#790000
0,
#795000
b111100 O
b111100 M
1,
#800000
0,
0*
#805000
1>
b111101 M
0@
b111101 O
1,
#810000
0,
#815000
0>
b111110 O
0?
b0 A
b1 B
b111110 M
1,
#820000
0,
#825000
b111111 M
b1 A
b111111 O
1,
#830000
0,
#835000
b1000000 O
b10 A
b1000000 M
1,
#840000
0,
#845000
b1000001 M
b11 A
b1000001 O
1,
#850000
0,
#855000
b1000010 O
b100 A
b1000010 M
1,
#860000
0,
#865000
b1000011 M
b101 A
b1000011 O
1,
#870000
0,
#875000
b1000100 O
b110 A
b1000100 M
1,
#880000
0,
#885000
b1000101 M
b111 A
b1000101 O
1,
#890000
0,
#895000
b1000110 O
b1000 A
b1000110 M
1,
#900000
0,
#905000
b1000111 M
b1001 A
b1000111 O
1,
#910000
0,
#915000
b1001000 O
0!
0;
b10 B
b1001000 M
1,
#920000
0,
#925000
b1001001 M
0R
b0 B
b1001001 O
1,
#930000
0,
#935000
b1001010 O
b1001010 M
1,
#940000
0,
#945000
b1001011 M
b1001011 O
1,
#950000
0,
#955000
b1001100 O
b1001100 M
1,
#960000
0,
#965000
b1001101 M
b1001101 O
1,
#970000
0,
#975000
b1001110 O
b1001110 M
1,
#980000
0,
#985000
b1001111 M
b1001111 O
1,
#990000
0,
#995000
b1010000 O
b1010000 M
1,
#1000000
0,
0+
#1005000
1C
b1010001 M
0E
b1010001 O
1,
#1010000
0,
#1015000
0C
b1010010 O
0D
b0 F
b1 G
b1010010 M
1,
#1020000
0,
#1025000
b1010011 M
b1 F
b1010011 O
1,
#1030000
0,
#1035000
b1010100 O
b10 F
b1010100 M
1,
#1040000
0,
#1045000
b1010101 M
b11 F
b1010101 O
1,
#1050000
0,
#1055000
b1010110 O
b100 F
b1010110 M
1,
#1060000
0,
#1065000
b1010111 M
b101 F
b1010111 O
1,
#1070000
0,
#1075000
b1011000 O
b110 F
b1011000 M
1,
#1080000
0,
#1085000
b1011001 M
b111 F
b1011001 O
1,
#1090000
0,
#1095000
b1011010 O
b1000 F
b1011010 M
1,
#1100000
0,
#1105000
b1011011 M
b1001 F
b1011011 O
1,
#1110000
0,
#1115000
b0 U
b1011100 O
0"
0:
b10 G
b1011100 M
1,
#1120000
0,
#1125000
b1011101 M
1%
14
b0 T
0S
b0 G
b1011101 O
1,
#1130000
0,
#1135000
b110 '
b110 6
b110 N
b1 L
b1011110 O
0%
04
b1 (
b1 $
b1 5
b1 =
b1 I
b1011110 M
b1 -
b1 /
1,
#1140000
0,
#1145000
b1011111 M
b1011111 O
1,
#1150000
0,
#1155000
b1100000 O
b1100000 M
1,
#1160000
0,
#1165000
b1100001 M
b1100001 O
1,
#1170000
0,
#1175000
b1100010 O
b1100010 M
1,
#1180000
0,
#1185000
b1100011 M
b1100011 O
1,
#1190000
0,
#1195000
18
b0 O
b1100100 M
1,
#1200000
0,
#1205000
b1100101 M
b1 O
1,
#1210000
0,
#1215000
b10 O
b1100110 M
1,
#1220000
0,
#1225000
b1100111 M
b11 O
1,
#1230000
0,
#1235000
b100 O
b1101000 M
1,
#1240000
0,
#1245000
b1101001 M
b101 O
1,
#1250000
0,
#1255000
b110 O
b1101010 M
1,
#1260000
0,
#1265000
b1101011 M
b111 O
1,
#1270000
0,
#1275000
b1000 O
b1101100 M
1,
#1280000
0,
#1285000
b1101101 M
b1001 O
1,
#1290000
0,
#1295000
b1010 O
b1101110 M
1,
#1300000
0,
#1305000
b1101111 M
b1011 O
1,
#1310000
0,
#1315000
b1100 O
b1110000 M
1,
#1320000
0,
#1325000
b1110001 M
b1101 O
1,
#1330000
0,
#1335000
b1110 O
b1110010 M
1,
#1340000
0,
#1345000
b1110011 M
b1111 O
1,
#1350000
0,
#1355000
b10000 O
b1110100 M
1,
#1360000
0,
#1365000
b1110101 M
b10001 O
1,
#1370000
0,
#1375000
b10010 O
b1110110 M
1,
#1380000
0,
#1385000
b1110111 M
b10011 O
1,
#1390000
0,
#1395000
b10100 O
b1111000 M
1,
#1400000
0,
#1405000
b1111001 M
b10101 O
1,
#1410000
0,
#1415000
b10110 O
b1111010 M
1,
#1420000
0,
#1425000
b1111011 M
b10111 O
1,
#1430000
0,
#1435000
b11000 O
b1111100 M
1,
#1440000
0,
#1445000
b1111101 M
b11001 O
1,
#1450000
0,
#1455000
b11010 O
b1111110 M
1,
#1460000
0,
#1465000
b1111111 M
b11011 O
1,
#1470000
0,
#1475000
b11100 O
b10000000 M
1,
#1480000
0,
#1485000
b10000001 M
b11101 O
1,
#1490000
0,
#1495000
b11110 O
b10000010 M
1,
#1500000
0,
#1505000
b10000011 M
b11111 O
1,
#1510000
0,
#1515000
b100000 O
b10000100 M
1,
#1520000
0,
#1525000
b10000101 M
b100001 O
1,
#1530000
0,
#1535000
b100010 O
b10000110 M
1,
#1540000
0,
#1545000
b10000111 M
b100011 O
1,
#1550000
0,
#1555000
b100100 O
b10001000 M
1,
#1560000
0,
#1565000
b10001001 M
b100101 O
1,
#1570000
0,
#1575000
b100110 O
b10001010 M
1,
#1580000
0,
#1585000
b10001011 M
b100111 O
1,
#1590000
0,
#1595000
b101000 O
b10001100 M
1,
#1600000
0,
1*
#1605000
1>
b10001101 M
1@
b101001 O
1,
#1610000
0,
#1615000
0>
b101010 O
1?
b0 A
b1 B
b10001110 M
1,
#1620000
0,
#1625000
b10001111 M
b1 A
b101011 O
1,
#1630000
0,
#1635000
b101100 O
b10 A
b10010000 M
1,
#1640000
0,
#1645000
b10010001 M
b11 A
b101101 O
1,
#1650000
0,
#1655000
b101110 O
b100 A
b10010010 M
1,
#1660000
0,
#1665000
b10010011 M
b101 A
b101111 O
1,
#1670000
0,
#1675000
b110000 O
b110 A
b10010100 M
1,
#1680000
0,
#1685000
b10010101 M
b111 A
b110001 O
1,
#1690000
0,
#1695000
b110010 O
b1000 A
b10010110 M
1,
#1700000
0,
#1705000
b10010111 M
b1001 A
b110011 O
1,
#1710000
0,
#1715000
b1 U
1P
b110100 O
1!
1;
b10 B
b10011000 M
1,
#1720000
0,
#1725000
0P
b10011001 M
b1 T
1R
b0 B
b110101 O
1,
#1730000
0,
#1735000
b110110 O
b10011010 M
1,
#1740000
0,
#1745000
b10011011 M
b110111 O
1,
#1750000
0,
#1755000
b111000 O
b10011100 M
1,
#1760000
0,
#1765000
b10011101 M
b111001 O
1,
#1770000
0,
#1775000
b111010 O
b10011110 M
1,
#1780000
0,
#1785000
b10011111 M
b111011 O
1,
#1790000
0,
#1795000
b111100 O
b10100000 M
1,
#1800000
0,
1+
#1805000
1C
b10100001 M
1E
b111101 O
1,
#1810000
0,
#1815000
0C
b111110 O
1D
b0 F
b1 G
b10100010 M
1,
#1820000
0,
#1825000
b10100011 M
b1 F
b111111 O
1,
#1830000
0,
#1835000
b1000000 O
b10 F
b10100100 M
1,
#1840000
0,
#1845000
b10100101 M
b11 F
b1000001 O
1,
#1850000
0,
#1855000
b1000010 O
b100 F
b10100110 M
1,
#1860000
0,
#1865000
b10100111 M
b101 F
b1000011 O
1,
#1870000
0,
#1875000
b1000100 O
b110 F
b10101000 M
1,
#1880000
0,
#1885000
b10101001 M
b111 F
b1000101 O
1,
#1890000
0,
#1895000
b1000110 O
b1000 F
b10101010 M
1,
#1900000
0,
#1905000
b10101011 M
b1001 F
b1000111 O
1,
#1910000
0,
#1915000
b10 U
1Q
b1001000 O
1"
1:
b10 G
b10101100 M
1,
#1920000
0,
#1925000
0Q
b10101101 M
b10 T
1S
b0 G
b1001001 O
1,
#1930000
0,
#1935000
b1001010 O
b10101110 M
1,
#1940000
0,
#1945000
b10101111 M
b1001011 O
1,
#1950000
0,
#1955000
b1001100 O
b10110000 M
1,
#1960000
0,
#1965000
b10110001 M
b1001101 O
1,
#1970000
0,
#1975000
b1001110 O
b10110010 M
1,
#1980000
0,
#1985000
b10110011 M
b1001111 O
1,
#1990000
0,
#1995000
b1010000 O
b10110100 M
1,
#2000000
0,
0*
#2005000
1>
b10110101 M
0@
b1010001 O
1,
#2010000
0,
#2015000
0>
b1010010 O
0?
b0 A
b1 B
b10110110 M
1,
#2020000
0,
#2025000
b10110111 M
b1 A
b1010011 O
1,
#2030000
0,
#2035000
b1010100 O
b10 A
b10111000 M
1,
#2040000
0,
#2045000
b10111001 M
b11 A
b1010101 O
1,
#2050000
0,
#2055000
b1010110 O
b100 A
b10111010 M
1,
#2060000
0,
#2065000
b10111011 M
b101 A
b1010111 O
1,
#2070000
0,
#2075000
b1011000 O
b110 A
b10111100 M
1,
#2080000
0,
#2085000
b10111101 M
b111 A
b1011001 O
1,
#2090000
0,
#2095000
b1011010 O
b1000 A
b10111110 M
1,
#2100000
0,
#2105000
b10111111 M
b1001 A
b1011011 O
1,
#2110000
0,
#2115000
b1011100 O
0!
0;
b10 B
b11000000 M
1,
#2120000
0,
#2125000
b11000001 M
0R
b0 B
b1011101 O
1,
#2130000
0,
#2135000
b1011110 O
b11000010 M
1,
#2140000
0,
#2145000
b11000011 M
b1011111 O
1,
#2150000
0,
#2155000
b1100000 O
b11000100 M
1,
#2160000
0,
#2165000
b11000101 M
b1100001 O
1,
#2170000
0,
#2175000
b1100010 O
b11000110 M
1,
#2180000
0,
#2185000
b11000111 M
b1100011 O
1,
#2190000
0,
#2195000
08
b0 O
b11001000 M
1,
#2200000
0,
0+
#2205000
1C
b11001001 M
0E
b1 O
1,
#2210000
0,
#2215000
0C
b10 O
0D
b0 F
b1 G
b11001010 M
1,
#2220000
0,
#2225000
b11001011 M
b1 F
b11 O
1,
#2230000
0,
#2235000
b100 O
b10 F
b11001100 M
1,
#2240000
0,
#2245000
b11001101 M
b11 F
b101 O
1,
#2250000
0,
#2255000
b110 O
b100 F
b11001110 M
1,
#2260000
0,
#2265000
b11001111 M
b101 F
b111 O
1,
#2270000
0,
#2275000
b1000 O
b110 F
b11010000 M
1,
#2280000
0,
#2285000
b11010001 M
b111 F
b1001 O
1,
#2290000
0,
#2295000
b1010 O
b1000 F
b11010010 M
1,
#2300000
0,
#2305000
b11010011 M
b1001 F
b1011 O
1,
#2310000
0,
#2315000
b0 U
b1100 O
0"
0:
b10 G
b11010100 M
1,
#2320000
0,
#2325000
b11010101 M
1%
14
b0 T
0S
b0 G
b1101 O
1,
#2330000
0,
#2335000
b1011011 '
b1011011 6
b1011011 N
b10 L
b1110 O
0%
04
b10 (
b10 $
b10 5
b10 =
b10 I
b11010110 M
b10 -
b10 /
1,
#2340000
0,
#2345000
b11010111 M
b1111 O
1,
#2350000
0,
#2355000
b10000 O
b11011000 M
1,
#2360000
0,
#2365000
b11011001 M
b10001 O
1,
#2370000
0,
#2375000
b10010 O
b11011010 M
1,
#2380000
0,
#2385000
b11011011 M
b10011 O
1,
#2390000
0,
#2395000
b10100 O
b11011100 M
1,
#2400000
0,
#2405000
b11011101 M
b10101 O
1,
#2410000
0,
#2415000
b10110 O
b11011110 M
1,
#2420000
0,
#2425000
b11011111 M
b10111 O
1,
#2430000
0,
#2435000
b11000 O
b11100000 M
1,
#2440000
0,
#2445000
b11100001 M
b11001 O
1,
#2450000
0,
#2455000
b11010 O
b11100010 M
1,
#2460000
0,
#2465000
b11100011 M
b11011 O
1,
#2470000
0,
#2475000
b11100 O
b11100100 M
1,
#2480000
0,
#2485000
b11100101 M
b11101 O
1,
#2490000
0,
#2495000
b11110 O
b11100110 M
1,
#2500000
0,
#2505000
b11100111 M
b11111 O
1,
#2510000
0,
#2515000
b100000 O
b11101000 M
1,
#2520000
0,
#2525000
b11101001 M
b100001 O
1,
#2530000
0,
#2535000
b100010 O
b11101010 M
1,
#2540000
0,
#2545000
b11101011 M
b100011 O
1,
#2550000
0,
#2555000
b100100 O
b11101100 M
1,
#2560000
0,
#2565000
b11101101 M
b100101 O
1,
#2570000
0,
#2575000
b100110 O
b11101110 M
1,
#2580000
0,
#2585000
b11101111 M
b100111 O
1,
#2590000
0,
#2595000
b101000 O
b11110000 M
1,
#2600000
0,
#2605000
b11110001 M
b101001 O
1,
#2610000
0,
#2615000
b101010 O
b11110010 M
1,
#2620000
0,
#2625000
b11110011 M
b101011 O
1,
#2630000
0,
#2635000
b101100 O
b11110100 M
1,
#2640000
0,
#2645000
b11110101 M
b101101 O
1,
#2650000
0,
#2655000
b101110 O
b11110110 M
1,
#2660000
0,
#2665000
b11110111 M
b101111 O
1,
#2670000
0,
#2675000
b110000 O
b11111000 M
1,
#2680000
0,
#2685000
b11111001 M
b110001 O
1,
#2690000
0,
#2695000
b110010 O
b11111010 M
1,
#2700000
0,
#2705000
b11111011 M
b110011 O
1,
#2710000
0,
#2715000
b110100 O
b11111100 M
1,
#2720000
0,
#2725000
b11111101 M
b110101 O
1,
#2730000
0,
#2735000
b110110 O
b11111110 M
1,
#2740000
0,
#2745000
b11111111 M
b110111 O
1,
#2750000
0,
#2755000
b111000 O
b100000000 M
1,
#2760000
0,
#2765000
b100000001 M
b111001 O
1,
#2770000
0,
#2775000
b111010 O
b100000010 M
1,
#2780000
0,
#2785000
b100000011 M
b111011 O
1,
#2790000
0,
#2795000
b111100 O
b100000100 M
1,
#2800000
0,
1*
#2805000
1>
b100000101 M
1@
b111101 O
1,
#2810000
0,
#2815000
0>
b111110 O
1?
b0 A
b1 B
b100000110 M
1,
#2820000
0,
#2825000
b100000111 M
b1 A
b111111 O
1,
#2830000
0,
#2835000
b1000000 O
b10 A
b100001000 M
1,
#2840000
0,
#2845000
b100001001 M
b11 A
b1000001 O
1,
#2850000
0,
#2855000
b1000010 O
b100 A
b100001010 M
1,
#2860000
0,
#2865000
b100001011 M
b101 A
b1000011 O
1,
#2870000
0,
#2875000
b1000100 O
b110 A
b100001100 M
1,
#2880000
0,
#2885000
b100001101 M
b111 A
b1000101 O
1,
#2890000
0,
#2895000
b1000110 O
b1000 A
b100001110 M
1,
#2900000
0,
#2905000
b100001111 M
b1001 A
b1000111 O
1,
#2910000
0,
#2915000
b1 U
1P
b1001000 O
1!
1;
b10 B
b100010000 M
1,
#2920000
0,
#2925000
0P
b100010001 M
b1 T
1R
b0 B
b1001001 O
1,
#2930000
0,
#2935000
b1001010 O
b100010010 M
1,
#2940000
0,
#2945000
b100010011 M
b1001011 O
1,
#2950000
0,
#2955000
b1001100 O
b100010100 M
1,
#2960000
0,
#2965000
b100010101 M
b1001101 O
1,
#2970000
0,
#2975000
b1001110 O
b100010110 M
1,
#2980000
0,
#2985000
b100010111 M
b1001111 O
1,
#2990000
0,
#2995000
b1010000 O
b100011000 M
1,
#3000000
0,
1+
#3005000
1C
b100011001 M
1E
b1010001 O
1,
#3010000
0,
#3015000
0C
b1010010 O
1D
b0 F
b1 G
b100011010 M
1,
#3020000
0,
#3025000
b100011011 M
b1 F
b1010011 O
1,
#3030000
0,
#3035000
b1010100 O
b10 F
b100011100 M
1,
#3040000
0,
#3045000
b100011101 M
b11 F
b1010101 O
1,
#3050000
0,
#3055000
b1010110 O
b100 F
b100011110 M
1,
#3060000
0,
#3065000
b100011111 M
b101 F
b1010111 O
1,
#3070000
0,
#3075000
b1011000 O
b110 F
b100100000 M
1,
#3080000
0,
#3085000
b100100001 M
b111 F
b1011001 O
1,
#3090000
0,
#3095000
b1011010 O
b1000 F
b100100010 M
1,
#3100000
0,
#3105000
b100100011 M
b1001 F
b1011011 O
1,
#3110000
0,
#3115000
b10 U
1Q
b1011100 O
1"
1:
b10 G
b100100100 M
1,
#3120000
0,
#3125000
0Q
b100100101 M
b10 T
1S
b0 G
b1011101 O
1,
#3130000
0,
#3135000
b1011110 O
b100100110 M
1,
#3140000
0,
#3145000
b100100111 M
b1011111 O
1,
#3150000
0,
#3155000
b1100000 O
b100101000 M
1,
#3160000
0,
#3165000
b100101001 M
b1100001 O
1,
#3170000
0,
#3175000
b1100010 O
b100101010 M
1,
#3180000
0,
#3185000
b100101011 M
b1100011 O
1,
#3190000
0,
#3195000
18
b0 O
b100101100 M
1,
#3200000
0,
0*
#3205000
1>
b100101101 M
0@
b1 O
1,
#3210000
0,
#3215000
0>
b10 O
0?
b0 A
b1 B
b100101110 M
1,
#3220000
0,
#3225000
b100101111 M
b1 A
b11 O
1,
#3230000
0,
#3235000
b100 O
b10 A
b100110000 M
1,
#3240000
0,
#3245000
b100110001 M
b11 A
b101 O
1,
#3250000
0,
#3255000
b110 O
b100 A
b100110010 M
1,
#3260000
0,
#3265000
b100110011 M
b101 A
b111 O
1,
#3270000
0,
#3275000
b1000 O
b110 A
b100110100 M
1,
#3280000
0,
#3285000
b100110101 M
b111 A
b1001 O
1,
#3290000
0,
#3295000
b1010 O
b1000 A
b100110110 M
1,
#3300000
0,
#3305000
b100110111 M
b1001 A
b1011 O
1,
#3310000
0,
#3315000
b1100 O
0!
0;
b10 B
b100111000 M
1,
#3320000
0,
#3325000
b100111001 M
0R
b0 B
b1101 O
1,
#3330000
0,
#3335000
b1110 O
b100111010 M
1,
#3340000
0,
#3345000
b100111011 M
b1111 O
1,
#3350000
0,
#3355000
b10000 O
b100111100 M
1,
#3360000
0,
#3365000
b100111101 M
b10001 O
1,
#3370000
0,
#3375000
b10010 O
b100111110 M
1,
#3380000
0,
#3385000
b100111111 M
b10011 O
1,
#3390000
0,
#3395000
b10100 O
b101000000 M
1,
#3400000
0,
0+
#3405000
1C
b101000001 M
0E
b10101 O
1,
#3410000
0,
#3415000
0C
b10110 O
0D
b0 F
b1 G
b101000010 M
1,
#3420000
0,
#3425000
b101000011 M
b1 F
b10111 O
1,
#3430000
0,
#3435000
b11000 O
b10 F
b101000100 M
1,
#3440000
0,
#3445000
b101000101 M
b11 F
b11001 O
1,
#3450000
0,
#3455000
b11010 O
b100 F
b101000110 M
1,
#3460000
0,
#3465000
b101000111 M
b101 F
b11011 O
1,
#3470000
0,
#3475000
b11100 O
b110 F
b101001000 M
1,
#3480000
0,
#3485000
b101001001 M
b111 F
b11101 O
1,
#3490000
0,
#3495000
b11110 O
b1000 F
b101001010 M
1,
#3500000
0,
#3505000
b101001011 M
b1001 F
b11111 O
1,
#3510000
0,
#3515000
b0 U
b100000 O
0"
0:
b10 G
b101001100 M
1,
#3520000
0,
#3525000
b101001101 M
1%
14
b0 T
0S
b0 G
b100001 O
1,
#3530000
0,
#3535000
b1001111 '
b1001111 6
b1001111 N
b11 L
b100010 O
0%
04
b11 (
b11 $
b11 5
b11 =
b11 I
b101001110 M
b11 -
b11 /
1,
#3540000
0,
#3545000
b101001111 M
b100011 O
1,
#3550000
0,
#3555000
b100100 O
b101010000 M
1,
#3560000
0,
#3565000
b101010001 M
b100101 O
1,
#3570000
0,
#3575000
b100110 O
b101010010 M
1,
#3580000
0,
#3585000
b101010011 M
b100111 O
1,
#3590000
0,
#3595000
b101000 O
b101010100 M
1,
#3600000
0,
#3605000
b101010101 M
b101001 O
1,
#3610000
0,
#3615000
b101010 O
b101010110 M
1,
#3620000
0,
#3625000
b101010111 M
b101011 O
1,
#3630000
0,
#3635000
b101100 O
b101011000 M
1,
#3640000
0,
#3645000
b101011001 M
b101101 O
1,
#3650000
0,
#3655000
b101110 O
b101011010 M
1,
#3660000
0,
#3665000
b101011011 M
b101111 O
1,
#3670000
0,
#3675000
b110000 O
b101011100 M
1,
#3680000
0,
#3685000
b101011101 M
b110001 O
1,
#3690000
0,
#3695000
b110010 O
b101011110 M
1,
#3700000
0,
#3705000
b101011111 M
b110011 O
1,
#3710000
0,
#3715000
b110100 O
b101100000 M
1,
#3720000
0,
#3725000
b101100001 M
b110101 O
1,
#3730000
0,
#3735000
b110110 O
b101100010 M
1,
#3740000
0,
#3745000
b101100011 M
b110111 O
1,
#3750000
0,
#3755000
b111000 O
b101100100 M
1,
#3760000
0,
#3765000
b101100101 M
b111001 O
1,
#3770000
0,
#3775000
b111010 O
b101100110 M
1,
#3780000
0,
#3785000
b101100111 M
b111011 O
1,
#3790000
0,
#3795000
b111100 O
b101101000 M
1,
#3800000
0,
#3805000
b101101001 M
b111101 O
1,
#3810000
0,
#3815000
b111110 O
b101101010 M
1,
#3820000
0,
#3825000
b101101011 M
b111111 O
1,
#3830000
0,
#3835000
b1000000 O
b101101100 M
1,
#3840000
0,
#3845000
b101101101 M
b1000001 O
1,
#3850000
0,
#3855000
b1000010 O
b101101110 M
1,
#3860000
0,
#3865000
b101101111 M
b1000011 O
1,
#3870000
0,
#3875000
b1000100 O
b101110000 M
1,
#3880000
0,
#3885000
b101110001 M
b1000101 O
1,
#3890000
0,
#3895000
b1000110 O
b101110010 M
1,
#3900000
0,
1W
b10 0
b10 1
b11 X
#3905000
b101110011 M
b1000111 O
1,
#3910000
0,
#3915000
b1001000 O
b101110100 M
1,
#3920000
0,
#3925000
b101110101 M
b1001001 O
1,
#3930000
0,
#3935000
b1001010 O
b101110110 M
1,
#3940000
0,
#3945000
b101110111 M
b1001011 O
1,
#3950000
0,
#3955000
b1001100 O
b101111000 M
1,
#3960000
0,
#3965000
b101111001 M
b1001101 O
1,
#3970000
0,
#3975000
b1001110 O
b101111010 M
1,
#3980000
0,
#3985000
b101111011 M
b1001111 O
1,
#3990000
0,
#3995000
b1010000 O
b101111100 M
1,
#4000000
0,
1*
#4005000
1>
b101111101 M
1@
b1010001 O
1,
#4010000
0,
#4015000
0>
b1010010 O
1?
b0 A
b1 B
b101111110 M
1,
#4020000
0,
#4025000
b101111111 M
b1 A
b1010011 O
1,
#4030000
0,
#4035000
b1010100 O
b10 A
b110000000 M
1,
#4040000
0,
#4045000
b110000001 M
b11 A
b1010101 O
1,
#4050000
0,
#4055000
b1010110 O
b100 A
b110000010 M
1,
#4060000
0,
#4065000
b110000011 M
b101 A
b1010111 O
1,
#4070000
0,
#4075000
b1011000 O
b110 A
b110000100 M
1,
#4080000
0,
#4085000
b110000101 M
b111 A
b1011001 O
1,
#4090000
0,
